<?xml version="1.0" encoding="utf-8"?>
<!-- Generator: Adobe Illustrator 19.2.1, SVG Export Plug-In . SVG Version: 6.00 Build 0)  -->
<svg version="1.1" id="Layer_1" xmlns="http://www.w3.org/2000/svg" xmlns:xlink="http://www.w3.org/1999/xlink" x="0px" y="0px"
	 viewBox="0 0 120.9 120.9" style="enable-background:new 0 0 120.9 120.9;" xml:space="preserve">
<style type="text/css">
	.st0{fill-rule:evenodd;clip-rule:evenodd;fill:#3B2E1C;}
	.st1{opacity:0.72;fill-rule:evenodd;clip-rule:evenodd;fill:url(#SVGID_1_);}
	.st2{fill-rule:evenodd;clip-rule:evenodd;fill:#F5AF79;}
	.st3{fill-rule:evenodd;clip-rule:evenodd;fill:#FBBF91;}
	.st4{fill-rule:evenodd;clip-rule:evenodd;fill:#281E20;}
	.st5{fill-rule:evenodd;clip-rule:evenodd;fill:#FFFFFF;}
	.st6{fill-rule:evenodd;clip-rule:evenodd;fill:#EFAB75;}
	.st7{fill-rule:evenodd;clip-rule:evenodd;fill:#C02F27;}
	.st8{fill-rule:evenodd;clip-rule:evenodd;fill:#30291C;}
	.st9{fill-rule:evenodd;clip-rule:evenodd;fill:#21110C;}
	.st10{fill-rule:evenodd;clip-rule:evenodd;fill:#281911;}
	.st11{opacity:0.62;fill-rule:evenodd;clip-rule:evenodd;fill:url(#SVGID_2_);}
	.st12{opacity:0.72;fill-rule:evenodd;clip-rule:evenodd;fill:url(#SVGID_3_);}
</style>
<g>
	<path class="st0" d="M32,103.8c-0.2,0.7-2.9,12.2,4.5,11.9c7.4-0.3,2.9-0.9,11.5-0.9c8.6,0,7,9.2,15.5,3.3
		c8.4-5.9,9.5,1.8,17.9-5.1c8.4-6.9,14.9-14.1,15.9-28.2c1-14.2-74.8-8.4-74.8-8.4l8.7,28.8L32,103.8z"/>
	<linearGradient id="SVGID_1_" gradientUnits="userSpaceOnUse" x1="33.012" y1="102.8618" x2="33.012" y2="102.8618">
		<stop  offset="3.333334e-002" style="stop-color:#F8DEA9;stop-opacity:0.9954"/>
		<stop  offset="0.4231" style="stop-color:#F8DEA9;stop-opacity:0.9954"/>
		<stop  offset="0.4943" style="stop-color:#F4DAA6;stop-opacity:0.8725"/>
		<stop  offset="0.5675" style="stop-color:#E8CF9E;stop-opacity:0.7462"/>
		<stop  offset="0.6416" style="stop-color:#D3BD90;stop-opacity:0.6184"/>
		<stop  offset="0.7163" style="stop-color:#B6A37C;stop-opacity:0.4895"/>
		<stop  offset="0.7916" style="stop-color:#918263;stop-opacity:0.3596"/>
		<stop  offset="0.8673" style="stop-color:#635944;stop-opacity:0.229"/>
		<stop  offset="0.9419" style="stop-color:#2F2A20;stop-opacity:0.1002"/>
		<stop  offset="1" style="stop-color:#000000;stop-opacity:0"/>
	</linearGradient>
	<path class="st1" d="M33,102.9"/>
	<g>
		<path class="st2" d="M18.8,63.2l3.3-1.1l4.6,19.1l-3.3,1.1c-1.8,0.6-3.6-0.5-4.1-2.3l-3-12.4C15.8,65.8,17,63.8,18.8,63.2z"/>
		<path class="st2" d="M103.1,63.2l-3.3-1.1l-4.6,19.1l3.3,1.1c1.8,0.6,3.6-0.5,4.1-2.3l3-12.4C106,65.8,104.9,63.8,103.1,63.2z"/>
	</g>
	<path class="st3" d="M60.9,11c22.5,0,40.7,20.7,40.7,46.1c0,25.5-19,53.2-40.7,53.2c-21.7,0-40.7-27.7-40.7-53.2
		C20.2,31.7,38.5,11,60.9,11z"/>
	<circle class="st4" cx="41.3" cy="72.5" r="4.7"/>
	<circle class="st4" cx="80.5" cy="72.5" r="4.7"/>
	<circle class="st5" cx="82.5" cy="71.5" r="1.6"/>
	<path class="st6" d="M56.4,84c0.1,0,2.4,1,4.5,1c2.1,0,4.4-1,4.5-1c-2.5,2.3-3.5,3.5-4.5,3.4C59.9,87.6,59,86.4,56.4,84z"/>
	<path class="st7" d="M54,93.1c1.5,1.2,4.8,2.1,6.9,2.1c2.1,0,5.4-0.9,6.9-2.1c-0.1,3.3-3.5,5.7-6.9,5.7
		C57.5,98.8,54.2,96.4,54,93.1z"/>
	<circle class="st5" cx="43.1" cy="71.5" r="1.6"/>
	<g>
		<path class="st8" d="M36,58.6c1.3-0.5,6.8-1.1,10.7,0.5c1.5,0.6,1.7,3.4,1.4,3.4c-7.3-1.9-10.8-0.9-12.1-0.8
			c-0.9,0-1.7-0.2-1.7-1.3l0,0C34.3,59.4,35.1,58.9,36,58.6z"/>
		<path class="st8" d="M85.8,58.6c-1.3-0.5-6.8-1.1-10.7,0.5c-1.5,0.6-1.7,3.4-1.4,3.4c7.3-1.9,10.8-0.9,12.1-0.8
			c0.9,0,1.7-0.2,1.7-1.3l0,0C87.5,59.4,86.7,58.9,85.8,58.6z"/>
	</g>
	<path class="st9" d="M25.9,67.1c0.5-1.1,1.5-2,2.4-2.8c2.3-2.1,6.7-14.9,7.2-17.8c1.2-7,9.4-13.9,15-14.5c0.1,0-0.6-1.5-0.7-1.9
		c0,0,0.2,0,1-0.1c0.1-4-0.3-12.1-0.3-13.4c-0.2-3.4-0.3-3.3,0-6.7c0.1-1.7,0.3-3.4,0.6-5c0.2-1.4,1.2-3.4,0.9-4.7c0,0,0,0,0-0.1
		c-8.8-0.2-18.6,5.6-24.5,11.8c-6.6,6.8-10.6,12.5-11.3,21.9c-5.4,1.7-8.9,8-7.7,13.5c0.2,0.7,0.4,1.4,0.1,2.1
		c-0.2,0.5-0.7,0.9-1.1,1.3c-5.2,4.4-6.1,13-2,18.5C2,70.4-0.6,77.4,0.1,81c0.5,2.8,3.6,5,5.1,7.3c-1.5,4.6,1.9,12.9,6.3,14.7
		c0.6,0.2,0.4,2.7,0.5,3.2c0.3,1.6,1.3,3.1,2.6,4.1c1.4,1,2.8,1.2,4.4,1.2c0.3,0,2.5-0.3,2.6-0.1c1.8,4.4,6.5,8.5,11,3.9
		c1.5,3.4,7.5,4,11.1,3.1c1.4-0.4,2.7-2.3,3.5-3.7c-7.7,0.6-6.1-10-9.8-14.1c-2.8-3-5.9-5-8-8.6c-2-3.4-3.3-7.2-4.1-11
		c-0.1-0.3,0-0.5,0.1-0.7c-0.6-3.4-0.4-6.8-0.1-10.3C25.4,69,25.5,68,25.9,67.1z"/>
	<path class="st10" d="M117.7,70.6c4.6-10.4,3.2-20.6-5.5-28.1c0.3-24.5-13-34.9-27-39.5C72.1-1.2,53.5-2.2,50.6,1.2
		c-0.3,0.4-0.6,0.8-0.8,1.3C48,6,47.4,7.4,47.3,14c-0.1,6.5,0.5,11.3,2.4,16.1c44.4-6,49.3,37.7,48.7,40.4c-0.9,5-1.4,10.2-4.1,15.2
		c-0.3,3.7-2.1,7.4-4.9,9.8c-2.2,1.9-4.3,2.8-5.1,5.8c-0.2,0.6-0.3,1.2-0.4,1.8c-0.1,2.2-0.7,4.3-1.7,6.2c-1.3,3.6-4.6,6.3-8.6,5.8
		c-0.2,0-0.5,0.1-0.7,0c-0.1,0-0.1,0-0.2,0c0,0-0.1,0-0.1,0c0.4,0.7,0.8,1.3,1.1,1.7c2,2.9,7.7,2.5,9.4,1.9c0.7-0.3,1.3-0.6,1.8-1
		c1.7,2.2,4.1,3.8,6.8,3.3c0.3,0,0.6-0.1,0.9-0.1c5.1-1,4.5-4.8,4.9-5.3c1.7,0.9,7.3-0.4,8.2-1.1c2.1-1.8,1.7-4.1,0.5-6.2
		c0.2-0.2,0.4-0.5,0.6-0.7c2.6-1,6.9-5.8,4.4-11.5c-0.1-0.2-0.1-0.3-0.2-0.4c0-0.1,0-0.1,0-0.2C119.4,92.9,124.6,73.5,117.7,70.6z"
		/>
	<linearGradient id="SVGID_2_" gradientUnits="userSpaceOnUse" x1="60.459" y1="129.244" x2="60.459" y2="10.6414">
		<stop  offset="1.538462e-002" style="stop-color:#FBF4DB"/>
		<stop  offset="4.323344e-002" style="stop-color:#FBF4D8;stop-opacity:0.9986"/>
		<stop  offset="6.704198e-002" style="stop-color:#FBF4CD;stop-opacity:0.9973"/>
		<stop  offset="8.929362e-002" style="stop-color:#FAF4BC;stop-opacity:0.9962"/>
		<stop  offset="0.1051" style="stop-color:#FAF4AA;stop-opacity:0.9954"/>
		<stop  offset="0.6795" style="stop-color:#FAF4AA;stop-opacity:0.9785"/>
		<stop  offset="0.7072" style="stop-color:#F0EAA3;stop-opacity:0.8938"/>
		<stop  offset="0.7546" style="stop-color:#D5D091;stop-opacity:0.7493"/>
		<stop  offset="0.8158" style="stop-color:#A9A573;stop-opacity:0.5624"/>
		<stop  offset="0.8885" style="stop-color:#6B6949;stop-opacity:0.3406"/>
		<stop  offset="0.9699" style="stop-color:#1E1E15;stop-opacity:9.178662e-002"/>
		<stop  offset="1" style="stop-color:#000000;stop-opacity:0"/>
	</linearGradient>
	<path class="st11" d="M117.7,70.6c4.6-10.4,3.2-20.6-5.5-28.1c0.3-24.5-13-34.9-27-39.5C73.4-0.8,57-2,51.9,0.4c0-0.1,0-0.2,0-0.3
		c0,0,0,0,0-0.1c-8.8-0.2-18.6,5.6-24.5,11.8c-6.6,6.8-10.6,12.5-11.3,21.9c-5.4,1.7-8.9,8-7.7,13.5c0.2,0.7,0.4,1.4,0.1,2.1
		c-0.2,0.5-0.7,0.9-1.1,1.3c-5.2,4.4-6.1,13-2,18.5C2,70.4-0.6,77.4,0.1,81c0.5,2.8,3.6,5,5.1,7.3c-1.5,4.6,1.9,12.9,6.3,14.7
		c0.6,0.2,0.4,2.7,0.5,3.2c0.3,1.6,1.3,3.1,2.6,4.1c1.4,1,2.8,1.2,4.4,1.2c0.3,0,2.5-0.3,2.6-0.1c1.8,4.4,6.5,8.5,11,3.9
		c1.5,3.4,7.5,4,11.1,3.1c1.4-0.4,2.7-2.3,3.5-3.7c-7.7,0.6-6.1-10-9.8-14.1c-2.8-3-5.9-5-8-8.6c-2-3.4-3.3-7.2-4.1-11
		c-0.1-0.3,0-0.5,0.1-0.7c-0.6-3.4-0.4-6.8-0.1-10.3c0.1-1,0.1-2,0.6-3c0.5-1.1,1.5-2,2.4-2.8c2.3-2.1,6.7-14.9,7.2-17.8
		c1.2-7,9.4-13.9,15-14.5c0,0-0.7-1.9-0.7-1.9C93.6,24.2,99,67.8,98.5,70.5c-0.9,5-1.4,10.2-4.1,15.2c-0.3,3.7-2.1,7.4-4.9,9.8
		c-2.2,1.9-4.3,2.8-5.1,5.8c-0.2,0.6-0.3,1.2-0.4,1.8c-0.1,2.2-0.7,4.3-1.7,6.2c-1.3,3.6-4.6,6.3-8.6,5.8c-0.2,0-0.5,0.1-0.7,0
		c-0.1,0-0.1,0-0.2,0c0,0-0.1,0-0.1,0c0.4,0.7,0.8,1.3,1.1,1.7c2,2.9,7.7,2.5,9.4,1.9c0.7-0.3,1.3-0.6,1.8-1
		c1.7,2.2,4.1,3.8,6.8,3.3c0.3,0,0.6-0.1,0.9-0.1c5.1-1,4.5-4.8,4.9-5.3c1.7,0.9,7.3-0.4,8.2-1.1c2.1-1.8,1.7-4.1,0.5-6.2
		c0.2-0.2,0.4-0.5,0.6-0.7c2.6-1,6.9-5.8,4.4-11.5c-0.1-0.2-0.1-0.3-0.2-0.4c0-0.1,0-0.1,0-0.2C119.4,92.9,124.6,73.5,117.7,70.6z"
		/>
	<linearGradient id="SVGID_3_" gradientUnits="userSpaceOnUse" x1="60.459" y1="129.244" x2="60.459" y2="6.3871">
		<stop  offset="3.333334e-002" style="stop-color:#F8DEA9;stop-opacity:0.9954"/>
		<stop  offset="0.2949" style="stop-color:#F8DEA9;stop-opacity:0.9954"/>
		<stop  offset="0.3819" style="stop-color:#F4DAA6;stop-opacity:0.8725"/>
		<stop  offset="0.4714" style="stop-color:#E8CF9E;stop-opacity:0.7462"/>
		<stop  offset="0.5619" style="stop-color:#D3BD90;stop-opacity:0.6184"/>
		<stop  offset="0.6533" style="stop-color:#B6A37C;stop-opacity:0.4895"/>
		<stop  offset="0.7453" style="stop-color:#918263;stop-opacity:0.3596"/>
		<stop  offset="0.8378" style="stop-color:#635944;stop-opacity:0.229"/>
		<stop  offset="0.929" style="stop-color:#2F2A20;stop-opacity:0.1002"/>
		<stop  offset="1" style="stop-color:#000000;stop-opacity:0"/>
	</linearGradient>
	<path class="st12" d="M117.7,70.6c4.6-10.4,3.2-20.6-5.5-28.1c0.3-24.5-13-34.9-27-39.5C73.4-0.8,57-2,51.9,0.4c0-0.1,0-0.2,0-0.3
		c0,0,0,0,0-0.1c-8.8-0.2-18.6,5.6-24.5,11.8c-6.6,6.8-10.6,12.5-11.3,21.9c-5.4,1.7-8.9,8-7.7,13.5c0.2,0.7,0.4,1.4,0.1,2.1
		c-0.2,0.5-0.7,0.9-1.1,1.3c-5.2,4.4-6.1,13-2,18.5C2,70.4-0.6,77.4,0.1,81c0.5,2.8,3.6,5,5.1,7.3c-1.5,4.6,1.9,12.9,6.3,14.7
		c0.6,0.2,0.4,2.7,0.5,3.2c0.3,1.6,1.3,3.1,2.6,4.1c1.4,1,2.8,1.2,4.4,1.2c0.3,0,2.5-0.3,2.6-0.1c1.8,4.4,6.5,8.5,11,3.9
		c1.5,3.4,7.8,4.6,11.1,3.1c1.6-0.8,4-4.3,3.5-3.7c-7.7,0.6-6.1-10-9.8-14.1c-2.8-3-5.9-5-8-8.6c-2-3.4-3.3-7.2-4.1-11
		c-0.1-0.3,0-0.5,0.1-0.7c-0.6-3.4-0.4-6.8-0.1-10.3c0.1-1,0.1-2,0.6-3c0.5-1.1,1.5-2,2.4-2.8c2.3-2.1,6.7-14.9,7.2-17.8
		c1.2-7,9.4-13.9,15-14.5c0.1,0-0.8-1.9-0.7-1.9C93.5,24.3,99,67.8,98.5,70.5c-0.9,5-1.4,10.2-4.1,15.2c-0.3,3.7-2.1,7.4-4.9,9.8
		c-2.2,1.9-4.3,2.8-5.1,5.8c-0.2,0.6-0.3,1.2-0.4,1.8c-0.1,2.2-0.7,4.3-1.7,6.2c-1.3,3.6-4.6,6.3-8.6,5.8c-0.2,0-0.5,0.1-0.7,0
		c-0.1,0-0.1,0-0.2,0c0,0-0.1,0-0.1,0c0.4,0.7,0.8,1.3,1.1,1.7c2,2.9,7.7,2.5,9.4,1.9c0.7-0.3,1.3-0.6,1.8-1
		c1.7,2.2,4.1,3.8,6.8,3.3c0.3,0,0.6-0.1,0.9-0.1c5.1-1,4.5-4.8,4.9-5.3c1.7,0.9,7.3-0.4,8.2-1.1c2.1-1.8,1.7-4.1,0.5-6.2
		c0.2-0.2,0.4-0.5,0.6-0.7c2.6-1,6.9-5.8,4.4-11.5c-0.1-0.2-0.1-0.3-0.2-0.4c0-0.1,0-0.1,0-0.2C119.4,92.9,124.6,73.5,117.7,70.6z"
		/>
</g>
</svg>
